{
  "project_info": {
    "project_number": "471149260378",
    "project_id": "expobare-a5553",
    "storage_bucket": "expobare-a5553.appspot.com"
  },
  "client": [
    {
      "client_info": {
        "mobilesdk_app_id": "1:471149260378:android:bf00a24200dbba8a31f263",
        "android_client_info": {
          "package_name": "com.expobareskeleton.com"
        }
      },
      "oauth_client": [
        {
          "client_id": "471149260378-nvo0dtc60btrc327b1hiklasdr2lprfg.apps.googleusercontent.com",
          "client_type": 3
        }
      ],
      "api_key": [
        {
          "current_key": "AIzaSyAGhEnlBphc8diYzLv5YShI5eJDV3MlZj8"
        }
      ],
      "services": {
        "appinvite_service": {
          "other_platform_oauth_client": [
            {
              "client_id": "471149260378-nvo0dtc60btrc327b1hiklasdr2lprfg.apps.googleusercontent.com",
              "client_type": 3
            }
          ]
        }
      }
    }
  ],
  "configuration_version": "1"
}